2_way_Superscalar/datapath_log.vcd
$date
	Mon Jul  5 19:31:14 2021
$end

$version
	Synopsys VCS version I-2014.03-2
$end

$timescale
	1ps
$end

$comment Csum: 1 aed8eacc8d5f848b $end


$scope module pipeline_datapath $end
$var wire 1 ! clk $end
$var wire 1 " br_taken $end
$var wire 1 # br_en $end
$var reg 1 $ br_taken_buff $end
$var reg 1 % br_en_buff $end
$var reg 1 & br_en_buff2 $end
$var wire 64 ' br_addr [63:0] $end
$var reg 64 ( br_addr_buff [63:0] $end
$var wire 64 ) pc [63:0] $end
$var reg 64 * pc_buff [63:0] $end
$var reg 64 + pc_buff2 [63:0] $end
$var wire 32 , instr [31:0] $end
$var reg 32 - instr_buff [31:0] $end
$var wire 1 . exec_bypass_sig_Rs1 $end
$var wire 1 / exec_bypass_sig_Rs2 $end
$var wire 1 0 mem_bypass_sig_Rs2 $end
$var wire 1 1 mem_bypass_sig_Rs1 $end
$var wire 1 2 wrb_bypass_sig_Rs1 $end
$var wire 1 3 wrb_bypass_sig_Rs2 $end
$var reg 1 4 exec_bypass_buff_Rs1 $end
$var reg 1 5 exec_bypass_buff_Rs2 $end
$var reg 1 6 mem_bypass_buff_Rs1 $end
$var reg 1 7 mem_bypass_buff_Rs2 $end
$var reg 1 8 wrb_bypass_sig_Rs1_buff $end
$var reg 1 9 wrb_bypass_sig_Rs2_buff $end
$var wire 1 : stall $end
$var wire 64 ; Alu_output [63:0] $end
$var reg 64 < Alu_output_buff [63:0] $end
$var reg 64 = Alu_output_buff2 [63:0] $end
$var wire 64 > reg_file_input [63:0] $end
$var wire 64 ? mem_data_output [63:0] $end
$var reg 64 @ mem_data_output_buff [63:0] $end
$var wire 1 A sign_bit $end
$var reg 1 B sign_bit_buff $end
$var wire 64 C pc_offset [63:0] $end
$var wire 1 D reg_wr_en $end
$var wire 1 E Rs2_en $end
$var reg 1 F reg_wr_en_buff $end
$var reg 1 G reg_wr_en_buff2 $end
$var reg 1 H reg_wr_en_buff3 $end
$var reg 1 I Rs2_en_buff $end
$var wire 1 J mem_rd_en $end
$var wire 1 K mem_wr_en $end
$var reg 1 L mem_rd_en_buff $end
$var reg 1 M mem_rd_en_buff2 $end
$var reg 1 N mem_rd_en_buff3 $end
$var reg 1 O mem_wr_en_buff $end
$var reg 1 P mem_wr_en_buff1 $end
$var reg 1 Q mem_wr_en_buff2 $end
$var reg 1 R mem_wr_en_buff3 $end
$var wire 4 S Alu_opr [3:0] $end
$var wire 4 T final_alu_opr [3:0] $end
$var wire 3 U load_opr [2:0] $end
$var reg 4 V Alu_opr_buff [3:0] $end
$var reg 4 W Alu_opr_buff2 [3:0] $end
$var reg 3 X load_opr_buff [2:0] $end
$var reg 3 Y load_opr_buff2 [2:0] $end
$var wire 2 Z store_opr [1:0] $end
$var reg 2 [ store_opr_buff [1:0] $end
$var reg 2 \ store_opr_buff2 [1:0] $end
$var wire 5 ] Rd_addr [4:0] $end
$var wire 5 ^ Rs1_addr [4:0] $end
$var wire 5 _ Rs2_addr [4:0] $end
$var reg 5 ` Rd_addr_buff [4:0] $end
$var reg 5 a Rd_addr_buff2 [4:0] $end
$var reg 5 b Rd_addr_buff3 [4:0] $end
$var wire 64 c Rs1_data [63:0] $end
$var wire 64 d Rs2_data [63:0] $end
$var wire 64 e input1_data [63:0] $end
$var wire 64 f input2_data [63:0] $end
$var wire 64 g data_store_mem [63:0] $end
$var reg 64 h Rs1_data_buff [63:0] $end
$var reg 64 i Rs2_data_buff [63:0] $end
$var reg 64 j data_store_mem_buff [63:0] $end
$var wire 12 k imm_val [11:0] $end
$var reg 12 l imm_val_buff [11:0] $end

$scope module U1 $end
$var reg 1 m clk $end
$upscope $end


$scope module U2 $end
$var wire 1 ! clk $end
$var wire 1 n branch_en $end
$var wire 1 : stall $end
$var wire 64 o branch_pc [63:0] $end
$var reg 64 p PC [63:0] $end
$upscope $end


$scope module U3 $end
$var wire 64 ) PC [63:0] $end
$var reg 32 q instr [31:0] $end
$upscope $end


$scope module U4 $end
$var wire 32 - input_inst [31:0] $end
$var reg 4 r Alu_opr [3:0] $end
$var reg 3 s load_flag [2:0] $end
$var reg 2 t store_flag [1:0] $end
$var reg 5 u Rd_addr [4:0] $end
$var reg 5 v Rs1_addr [4:0] $end
$var reg 5 w Rs2_addr [4:0] $end
$var reg 1 x reg_write_en $end
$var reg 1 y mem_write_en $end
$var reg 1 z mem_read_en $end
$var reg 1 { branch_en $end
$var reg 1 | Rs2_en $end

$scope function Alu_opr_R $end
$var reg 4 } Alu_opr_R [3:0] $end
$var reg 3 ~ func3 [2:0] $end
$var reg 7 "! func7 [0:6] $end
$upscope $end


$scope function Alu_opr_I $end
$var reg 3 "" Alu_opr_I [2:0] $end
$var reg 3 "# func3 [2:0] $end
$upscope $end


$scope function Alu_opr_B $end
$var reg 3 "$ Alu_opr_B [2:0] $end
$var reg 3 "% func3 [2:0] $end
$upscope $end


$scope function store_format $end
$var reg 2 "& store_format [1:0] $end
$var reg 3 "' func3 [2:0] $end
$upscope $end


$scope function load_format $end
$var reg 3 "( load_format [2:0] $end
$var reg 3 ") func3 [2:0] $end
$upscope $end

$upscope $end


$scope module U5 $end
$var wire 1 H Wen $end
$var wire 5 ^ Rs1_addr [4:0] $end
$var wire 5 _ Rs2_addr [4:0] $end
$var wire 5 b Rd_addr [4:0] $end
$var wire 64 > write_data [63:0] $end
$var wire 64 "* Rs1_data [63:0] $end
$var wire 64 "+ Rs2_data [63:0] $end
$var integer 32 ", i $end
$upscope $end


$scope module U6 $end
$var wire 4 V Alu_opr [3:0] $end
$var wire 64 e IP_data1 [63:0] $end
$var wire 64 f IP_data2 [63:0] $end
$var wire 64 ; OP_data [63:0] $end
$var wire 1 " is_br_taken $end
$upscope $end


$scope module U7 $end
$var wire 3 Y load_format [2:0] $end
$var wire 2 \ store_format [1:0] $end
$var wire 1 Q mem_write_en $end
$var wire 1 M mem_read_en $end
$var wire 64 "- mem_addr [63:0] $end
$var wire 64 ". mem_data_input [63:0] $end
$var reg 64 "/ mem_data_output [63:0] $end
$var integer 32 "0 i $end
$upscope $end

$upscope $end

$enddefinitions $end

#0
$dumpvars
xE
xI
0m
x|
x{
x#
x%
x&
x"
x$
xn
0!
x4
x5
0.
0/
x6
x7
01
00
xJ
xL
xM
xN
xz
xK
xO
xP
xQ
xR
xy
xD
xF
xG
xH
xx
xA
xB
x:
x2
x8
x3
x9
bxxxx S
bxxx "$
bxxx "%
bxxx ""
bxxx "#
bxxxx }
bxxx ~
bxxxxxxx "!
bxxxx V
bxxxx W
bxxxxxxxxxxxxxxxxxxxxxxxxxxxxxxxxxxxxxxxxxxxxxxxxxxxxxxxxxxxxxxxx ;
bxxxxxxxxxxxxxxxxxxxxxxxxxxxxxxxxxxxxxxxxxxxxxxxxxxxxxxxxxxxxxxxx <
bxxxxxxxxxxxxxxxxxxxxxxxxxxxxxxxxxxxxxxxxxxxxxxxxxxxxxxxxxxxxxxxx =
b0000000000000000000000000000000000000000000000000000000000000000 p
bxxxxx ]
bxxxxx `
bxxxxx a
bxxxxx b
bxxxxx ^
bxxxxxxxxxxxxxxxxxxxxxxxxxxxxxxxxxxxxxxxxxxxxxxxxxxxxxxxxxxxxxxxx c
bxxxxxxxxxxxxxxxxxxxxxxxxxxxxxxxxxxxxxxxxxxxxxxxxxxxxxxxxxxxxxxxx h
bxxxxx _
bxxxxxxxxxxxxxxxxxxxxxxxxxxxxxxxxxxxxxxxxxxxxxxxxxxxxxxxxxxxxxxxx d
bxxxxxxxxxxxxxxxxxxxxxxxxxxxxxxxxxxxxxxxxxxxxxxxxxxxxxxxxxxxxxxxx i
bxxxxxxxxxxxxxxxxxxxxxxxxxxxxxxxx q
bxxxx r
bxxxxx u
bxxxxx v
bxxxxx w
bxxxxxxxxxxxxxxxxxxxxxxxxxxxxxxxxxxxxxxxxxxxxxxxxxxxxxxxxxxxxxxxx "*
bxxxxxxxxxxxxxxxxxxxxxxxxxxxxxxxxxxxxxxxxxxxxxxxxxxxxxxxxxxxxxxxx "+
b00000000000000000000011111111111 "0
bxxxxxxxxxxxxxxxxxxxxxxxxxxxxxxxxxxxxxxxxxxxxxxxxxxxxxxxxxxxxxxxx "/
bxxxxxxxxxxxxxxxxxxxxxxxxxxxxxxxxxxxxxxxxxxxxxxxxxxxxxxxxxxxxxxxx '
bxxxxxxxxxxxxxxxxxxxxxxxxxxxxxxxxxxxxxxxxxxxxxxxxxxxxxxxxxxxxxxxx (
bxxxxxxxxxxxxxxxxxxxxxxxxxxxxxxxxxxxxxxxxxxxxxxxxxxxxxxxxxxxxxxxx o
bxxxxxxxxxxxxxxxxxxxxxxxxxxxxxxxxxxxxxxxxxxxxxxxxxxxxxxxxxxxxxxxx g
bxxxxxxxxxxxxxxxxxxxxxxxxxxxxxxxxxxxxxxxxxxxxxxxxxxxxxxxxxxxxxxxx j
bzzzz T
b00000000000000000000000000100000 ",
bxxxxxxxxxxxx k
bxxxxxxxxxxxx l
bxxxxxxxxxxxxxxxxxxxxxxxxxxxxxxxxxxxxxxxxxxxxxxxxxxxxxxxxxxxxxxxx e
bxxxxxxxxxxxxxxxxxxxxxxxxxxxxxxxxxxxxxxxxxxxxxxxxxxxxxxxxxxxxxxxx f
bxxxxxxxxxxxxxxxxxxxxxxxxxxxxxxxx ,
bxxxxxxxxxxxxxxxxxxxxxxxxxxxxxxxx -
bxxx s
bxxx ")
bxxx "(
bxxx U
bxxx X
bxxx Y
bxxxxxxxxxxxxxxxxxxxxxxxxxxxxxxxxxxxxxxxxxxxxxxxxxxxxxxxxxxxxxxxx "-
bxxxxxxxxxxxxxxxxxxxxxxxxxxxxxxxxxxxxxxxxxxxxxxxxxxxxxxxxxxxxxxxx ".
bxxxxxxxxxxxxxxxxxxxxxxxxxxxxxxxxxxxxxxxxxxxxxxxxxxxxxxxxxxxxxxxx ?
bxxxxxxxxxxxxxxxxxxxxxxxxxxxxxxxxxxxxxxxxxxxxxxxxxxxxxxxxxxxxxxxx @
b0000000000000000000000000000000000000000000000000000000000000000 )
bxxxxxxxxxxxxxxxxxxxxxxxxxxxxxxxxxxxxxxxxxxxxxxxxxxxxxxxxxxxxxxxx *
bxxxxxxxxxxxxxxxxxxxxxxxxxxxxxxxxxxxxxxxxxxxxxxxxxxxxxxxxxxxxxxxx +
bxxxxxxxxxxxxxxxxxxxxxxxxxxxxxxxxxxxxxxxxxxxxxxxxxxxxxxxxxxxxxxx0 C
bxxxxxxxxxxxxxxxxxxxxxxxxxxxxxxxxxxxxxxxxxxxxxxxxxxxxxxxxxxxxxxxx >
bxx t
bxxx "'
bxx "&
bxx Z
bxx [
bxx \
$end
#3000
1m
1!
b0000000000000000000000000000000000000000000000000000000000000000 *
04
06
05
07
b0000000000000000000000000000000000000000000000000000000000000100 p
b0000000000000000000000000000000000000000000000000000000000000100 )
b00000001010110100000010010110011 q
b00000001010110100000010010110011 ,
#6000
0m
0!
#9000
1m
1!
b0000000000000000000000000000000000000000000000000000000000000100 *
b00000001010110100000010010110011 -
0A
b0000000000000000000000000000000000000000000000000000000000000000 +
b0000000000000000000000000000000000000000000000000000000000001000 p
b0000000000000000000000000000000000000000000000000000000000001000 )
b000 ~
b0000000 "!
b0000 }
b10100 v
b0000000000000000000001000101011001110000000100000010001111010010 "*
b0000000000000000000001000101011001110000000100000010001111010010 c
b10100 ^
b10101 w
b0000000000000000000000000000000000000001001000000000010111000010 "+
b0000000000000000000000000000000000000001001000000000010111000010 d
b10101 _
b01001 u
b01001 ]
1x
1D
0y
0K
0z
0J
0{
0#
1|
1E
b0000 r
b0000 S
bzzzzzzzzzzzz k
02
03
b00000000000101001000010010010011 q
b00000000000101001000010010010011 ,
#12000
0m
0!
#15000
1m
1!
b0000000000000000000000000000000000000000000000000000000000001000 *
b00000000000101001000010010010011 -
b0000 V
b0000000000000000000001000101011001110000000100000010001111010010 h
b0000000000000000000000000000000000000001001000000000010111000010 i
b01001 `
0O
0L
0%
bzzzzzzzzzzzz l
1I
0B
b0000000000000000000000000000000000000000000000000000000000000100 +
1F
08
09
b0000000000000000000000000000000000000000000000000000000000001100 p
b0000000000000000000000000000000000000000000000000000000000001100 )
b000 "#
b000 ""
b01001 v
b0000000000000000000000000000000000000000000000000000000000000000 "*
b0000000000000000000000000000000000000000000000000000000000000000 c
b01001 ^
bzzzzz w
bxxxxxxxxxxxxxxxxxxxxxxxxxxxxxxxxxxxxxxxxxxxxxxxxxxxxxxxxxxxxxxxx "+
bxxxxxxxxxxxxxxxxxxxxxxxxxxxxxxxxxxxxxxxxxxxxxxxxxxxxxxxxxxxxxxxx d
bzzzzz _
0|
0E
b000000000001 k
1"
b0000000000000000000000000000000000000001001000000000010111000010 g
0:
b000000000000000000000000000000000000000000000000000zzzzzzzzzzzz0 C
b0000000000000000000000000000000000000001001000000000010111000010 f
b0000000000000000000001000101011001110000000100000010001111010010 e
1.
b0000000000000000000001000101011001110001001100000010100110010100 ;
b11110000100101010011100000100011 q
b11110000100101010011100000100011 ,
#18000
0m
0!
#21000
1m
1!
b0000000000000000000000000000000000000000000000000000000000001100 *
b11110000100101010011100000100011 -
1A
b0000000000000000000000000000000000000000000000000000000000000000 h
bxxxxxxxxxxxxxxxxxxxxxxxxxxxxxxxxxxxxxxxxxxxxxxxxxxxxxxxxxxxxxxxx i
b000000000001 l
0I
b0000000000000000000000000000000000000000000000000000000000001000 +
14
b0000000000000000000001000101011001110001001100000010100110010100 <
b0000000000000000000001000101011001110001001100000010100110010100 "-
0M
0Q
b0000000000000000000000000000000000000001001000000000010111000010 j
b0000000000000000000000000000000000000001001000000000010111000010 ".
0&
0n
1$
1G
b01001 a
b0000000000000000000000000000000000000000000000000000000000010000 p
b0000000000000000000000000000000000000000000000000000000000010000 )
b011 "'
b11 "&
b01010 v
b0000000000000000000000000000000000000000000000000000111111111111 "*
b0000000000000000000000000000000000000000000000000000111111111111 c
b01010 ^
b01001 w
b0000000000000000000000000000000000000000000000000000000000000000 "+
b0000000000000000000000000000000000000000000000000000000000000000 d
b01001 _
bzzzzz u
bzzzzz ]
b11 t
b11 Z
0x
0D
1y
1K
b111100010000 k
b0000000000000000000001000101011001110001001100000010100110010100 e
bxxxxxxxxxxxxxxxxxxxxxxxxxxxxxxxxxxxxxxxxxxxxxxxxxxxxxxxxxxxxxxxx g
b0000000000000000000000000000000000000000000000000000000000000001 f
b0000000000000000000000000000000000000000000000000000000000000010 C
b0000000000000000000000000000000000000000000000000000000000001010 '
bzzzzzzzzzzzzzzzzzzzzzzzzzzzzzzzzzzzzzzzzzzzzzzzzzzzzzzzzzzzzzzzz "/
bzzzzzzzzzzzzzzzzzzzzzzzzzzzzzzzzzzzzzzzzzzzzzzzzzzzzzzzzzzzzzzzz ?
0.
1/
b0000000000000000000001000101011001110001001100000010100110010101 ;
b11110001000001010011001010000011 q
b11110001000001010011001010000011 ,
#24000
0m
0!
#27000
1m
1!
b0000000000000000000000000000000000000000000000000000000000010000 *
b11110001000001010011001010000011 -
b11 [
b0000000000000000000000000000000000000000000000000000111111111111 h
b0000000000000000000000000000000000000000000000000000000000000000 i
bzzzzz `
1O
b111100010000 l
1B
b0000000000000000000000000000000000000000000000000000000000001100 +
b0000000000000000000000000000000000000000000000000000000000001110 '
0F
04
15
b0000000000000000000001000101011001110001001100000010100110010101 <
b0000000000000000000001000101011001110001001100000010100110010101 "-
bxxxxxxxxxxxxxxxxxxxxxxxxxxxxxxxxxxxxxxxxxxxxxxxxxxxxxxxxxxxxxxxx j
bxxxxxxxxxxxxxxxxxxxxxxxxxxxxxxxxxxxxxxxxxxxxxxxxxxxxxxxxxxxxxxxx ".
b0000000000000000000000000000000000000000000000000000000000001010 (
b0000000000000000000000000000000000000000000000000000000000001010 o
bzzzzzzzzzzzzzzzzzzzzzzzzzzzzzzzzzzzzzzzzzzzzzzzzzzzzzzzzzzzzzzzz @
b0000000000000000000001000101011001110001001100000010100110010100 =
0N
0R
1H
b01001 b
b0000000000000000000000000000000000000000000000000000000000010100 p
b0000000000000000000000000000000000000000000000000000000000010100 )
b011 ")
b101 "(
bzzzzz w
bxxxxxxxxxxxxxxxxxxxxxxxxxxxxxxxxxxxxxxxxxxxxxxxxxxxxxxxxxxxxxxxx "+
bxxxxxxxxxxxxxxxxxxxxxxxxxxxxxxxxxxxxxxxxxxxxxxxxxxxxxxxxxxxxxxxx d
bzzzzz _
b00101 u
b00101 ]
1x
1D
0y
0K
1z
1J
b101 s
b101 U
b0000000000000000000001000101011001110001001100000010100110010101 g
0/
b1111111111111111111111111111111111111111111111111111111100010000 f
b1111111111111111111111111111111111111111111111111111111000100000 C
b1111111111111111111111111111111111111111111111111111111000101100 '
b0000000000000000000000000000000000000000000000000000111111111111 e
b0000000000000000000001000101011001110001001100000010100110010100 >
03
b0000000000000000000000000000000000000000000000000000111100001111 ;
b11111110010101001000100011100111 q
b11111110010101001000100011100111 ,
#30000
0m
0!
#33000
1m
1!
b0000000000000000000000000000000000000000000000000000000000010100 *
b11111110010101001000100011100111 -
b101 X
bxxxxxxxxxxxxxxxxxxxxxxxxxxxxxxxxxxxxxxxxxxxxxxxxxxxxxxxxxxxxxxxx i
b00101 `
0O
1L
b0000000000000000000000000000000000000000000000000000000000010000 +
b1111111111111111111111111111111111111111111111111111111000110000 '
1F
05
b0000000000000000000000000000000000000000000000000000111100001111 <
b0000000000000000000000000000000000000000000000000000111100001111 "-
b11 \
1Q
b0000000000000000000001000101011001110001001100000010100110010101 j
b0000000000000000000001000101011001110001001100000010100110010101 ".
b1111111111111111111111111111111111111111111111111111111000101100 (
b1111111111111111111111111111111111111111111111111111111000101100 o
0G
bzzzzz a
b0000000000000000000001000101011001110001001100000010100110010101 =
b0000000000000000000000000000000000000000000000000000000000011000 p
b0000000000000000000000000000000000000000000000000000000000011000 )
b000 "%
b111 "$
b01001 v
b0000000000000000000001000101011001110001001100000010100110010100 "*
b0000000000000000000001000101011001110001001100000010100110010100 c
b01001 ^
b00101 w
b0000000000000000000000000000000000000000000000000000000000000000 "+
b0000000000000000000000000000000000000000000000000000000000000000 d
b00101 _
bzzzzz u
bzzzzz ]
b0111 r
b0111 S
0x
0D
0z
0J
1{
1#
1|
1E
b111111111000 k
1:
bxxxxxxxxxxxxxxxxxxxxxxxxxxxxxxxxxxxxxxxxxxxxxxxxxxxxxxxxxxxxxxxx g
b0000000000000000000001000101011001110001001100000010100110010101 >
12
b0000000000000000000001000101011001110001001100000010100110010101 "*
b0000000000000000000001000101011001110001001100000010100110010101 c
bxxxxxxxxxxxxxxxxxxxxxxxxxxxxxxxx q
bxxxxxxxxxxxxxxxxxxxxxxxxxxxxxxxx ,
#36000
0m
0!
#39000
1m
1!
b0000000000000000000000000000000000000000000000000000000000011000 *
b1111 V
b0000000000000000000001000101011001110001001100000010100110010101 h
b0000000000000000000000000000000000000000000000000000000000000000 i
bzzzzz `
0L
1%
b111111111000 l
1I
b0000000000000000000000000000000000000000000000000000000000010100 +
b1111111111111111111111111111111111111111111111111111111000110100 '
0F
18
b101 Y
1M
0Q
bxxxxxxxxxxxxxxxxxxxxxxxxxxxxxxxxxxxxxxxxxxxxxxxxxxxxxxxxxxxxxxxx j
bxxxxxxxxxxxxxxxxxxxxxxxxxxxxxxxxxxxxxxxxxxxxxxxxxxxxxxxxxxxxxxxx ".
b1111111111111111111111111111111111111111111111111111111000110000 (
b1111111111111111111111111111111111111111111111111111111000110000 o
1G
b00101 a
b0000000000000000000000000000000000000000000000000000111100001111 =
1R
0H
bzzzzz b
bzzzzzzzzzzzzzzzzzzzzzzzzzzzzzzzzzzzzzzzzzzzzzzzzzzzzzzzzzzzzzzzz ;
b0000000000000000000001000101011001110001001100000010100110010101 e
b0000000000000000000000000000000000000000000000000000000000000000 g
0:
b0000000000000000000001000101011001110001001100000010100110010101 f
b1111111111111111111111111111111111111111111111111111111111110000 C
b0000000000000000000000000000000000000000000000000000000000000100 '
10
b0000000000000000000000000000000000000000000000000000111100001111 >
02
b0000000000000000000000000000000000000000000000000000111100001111 f
b0000000000000000000001000101011001110001001100000010100110010101 "/
b0000000000000000000001000101011001110001001100000010100110010101 ?
#42000
0m
0!
#45000
1m
1!
bxxxxxxxxxxxxxxxxxxxxxxxxxxxxxxxx -
xA
b0111 V
b0000000000000000000000000000000000000000000000000000000000011000 +
b0000000000000000000000000000000000000000000000000000000000001000 '
17
08
bzzzzzzzzzzzzzzzzzzzzzzzzzzzzzzzzzzzzzzzzzzzzzzzzzzzzzzzzzzzzzzzz <
bzzzzzzzzzzzzzzzzzzzzzzzzzzzzzzzzzzzzzzzzzzzzzzzzzzzzzzzzzzzzzzzz "-
0M
b0000000000000000000000000000000000000000000000000000000000000000 j
b0000000000000000000000000000000000000000000000000000000000000000 ".
1&
b0000000000000000000000000000000000000000000000000000000000000100 (
b0000000000000000000000000000000000000000000000000000000000000100 o
0G
bzzzzz a
b0000000000000000000001000101011001110001001100000010100110010101 @
1N
0R
1H
b00101 b
b0000000000000000000000000000000000000000000000000000000000011100 p
b0000000000000000000000000000000000000000000000000000000000011100 )
bzzzzz v
bxxxxxxxxxxxxxxxxxxxxxxxxxxxxxxxxxxxxxxxxxxxxxxxxxxxxxxxxxxxxxxxx "*
bxxxxxxxxxxxxxxxxxxxxxxxxxxxxxxxxxxxxxxxxxxxxxxxxxxxxxxxxxxxxxxxx c
bzzzzz ^
bzzzzz w
bxxxxxxxxxxxxxxxxxxxxxxxxxxxxxxxxxxxxxxxxxxxxxxxxxxxxxxxxxxxxxxxx "+
bxxxxxxxxxxxxxxxxxxxxxxxxxxxxxxxxxxxxxxxxxxxxxxxxxxxxxxxxxxxxxxxx d
bzzzzz _
bzzzz r
bzzzz S
0{
0#
bxxxxxxxxxxxx k
b0000000000000000000001000101011001110001001100000010100110010101 f
bzzzzzzzzzzzzzzzzzzzzzzzzzzzzzzzzzzzzzzzzzzzzzzzzzzzzzzzzzzzzzzzz "/
bzzzzzzzzzzzzzzzzzzzzzzzzzzzzzzzzzzzzzzzzzzzzzzzzzzzzzzzzzzzzzzzz ?
00
b0000000000000000000001000101011001110001001100000010100110010101 >
03
1.
1/
0"
#48000
0m
0!
#51000
1m
1!
b0000000000000000000000000000000000000000000000000000000000011100 *
bzzzz V
bxxxxxxxxxxxxxxxxxxxxxxxxxxxxxxxxxxxxxxxxxxxxxxxxxxxxxxxxxxxxxxxx h
bxxxxxxxxxxxxxxxxxxxxxxxxxxxxxxxxxxxxxxxxxxxxxxxxxxxxxxxxxxxxxxxx i
0%
bxxxxxxxxxxxx l
xB
14
15
07
0$
1n
b0000000000000000000000000000000000000000000000000000000000001000 (
b0000000000000000000000000000000000000000000000000000000000001000 o
bzzzzzzzzzzzzzzzzzzzzzzzzzzzzzzzzzzzzzzzzzzzzzzzzzzzzzzzzzzzzzzzz @
bzzzzzzzzzzzzzzzzzzzzzzzzzzzzzzzzzzzzzzzzzzzzzzzzzzzzzzzzzzzzzzzz =
0N
0H
bzzzzz b
b0000000000000000000000000000000000000000000000000000000000100000 p
b0000000000000000000000000000000000000000000000000000000000100000 )
bxxxxxxxxxxxxxxxxxxxxxxxxxxxxxxxxxxxxxxxxxxxxxxxxxxxxxxxxxxxxxxxx ;
x"
bzzzzzzzzzzzzzzzzzzzzzzzzzzzzzzzzzzzzzzzzzzzzzzzzzzzzzzzzzzzzzzzz e
bxxxxxxxxxxxxxxxxxxxxxxxxxxxxxxxxxxxxxxxxxxxxxxxxxxxxxxxxxxxxxxxx g
bxxxxxxxxxxxxxxxxxxxxxxxxxxxxxxxxxxxxxxxxxxxxxxxxxxxxxxxxxxxxxxx0 C
bxxxxxxxxxxxxxxxxxxxxxxxxxxxxxxxxxxxxxxxxxxxxxxxxxxxxxxxxxxxxxxxx '
bzzzzzzzzzzzzzzzzzzzzzzzzzzzzzzzzzzzzzzzzzzzzzzzzzzzzzzzzzzzzzzzz f
bzzzzzzzzzzzzzzzzzzzzzzzzzzzzzzzzzzzzzzzzzzzzzzzzzzzzzzzzzzzzzzzz >
#54000
0m
0!
#57000
1m
1!
b0000000000000000000000000000000000000000000000000000000000100000 *
b0000000000000000000000000000000000000000000000000000000000011100 +
bxxxxxxxxxxxxxxxxxxxxxxxxxxxxxxxxxxxxxxxxxxxxxxxxxxxxxxxxxxxxxxxx <
bxxxxxxxxxxxxxxxxxxxxxxxxxxxxxxxxxxxxxxxxxxxxxxxxxxxxxxxxxxxxxxxx "-
bxxxxxxxxxxxxxxxxxxxxxxxxxxxxxxxxxxxxxxxxxxxxxxxxxxxxxxxxxxxxxxxx j
bxxxxxxxxxxxxxxxxxxxxxxxxxxxxxxxxxxxxxxxxxxxxxxxxxxxxxxxxxxxxxxxx ".
0&
0n
x$
bxxxxxxxxxxxxxxxxxxxxxxxxxxxxxxxxxxxxxxxxxxxxxxxxxxxxxxxxxxxxxxxx (
bxxxxxxxxxxxxxxxxxxxxxxxxxxxxxxxxxxxxxxxxxxxxxxxxxxxxxxxxxxxxxxxx o
b0000000000000000000000000000000000000000000000000000000000001000 p
b0000000000000000000000000000000000000000000000000000000000001000 )
bxxxxxxxxxxxxxxxxxxxxxxxxxxxxxxxxxxxxxxxxxxxxxxxxxxxxxxxxxxxxxxxx f
bxxxxxxxxxxxxxxxxxxxxxxxxxxxxxxxxxxxxxxxxxxxxxxxxxxxxxxxxxxxxxxxx e
b00000000000101001000010010010011 q
b00000000000101001000010010010011 ,
#60000
0m
0!
#63000
1m
1!
b0000000000000000000000000000000000000000000000000000000000001000 *
b00000000000101001000010010010011 -
0A
b0000000000000000000000000000000000000000000000000000000000100000 +
bxxxxxxxxxxxxxxxxxxxxxxxxxxxxxxxxxxxxxxxxxxxxxxxxxxxxxxxxxxxxxxxx =
b0000000000000000000000000000000000000000000000000000000000001100 p
b0000000000000000000000000000000000000000000000000000000000001100 )
b01001 v
b0000000000000000000001000101011001110001001100000010100110010101 "*
b0000000000000000000001000101011001110001001100000010100110010101 c
b01001 ^
b01001 u
b01001 ]
1x
1D
0|
0E
b0000 r
b0000 S
b000000000001 k
bxxxxxxxxxxxxxxxxxxxxxxxxxxxxxxxxxxxxxxxxxxxxxxxxxxxxxxxxxxxxxxxx >
0.
b11110000100101010011100000100011 q
b11110000100101010011100000100011 ,
#66000
0m
0!
#69000
1m
1!
b0000000000000000000000000000000000000000000000000000000000001100 *
b11110000100101010011100000100011 -
1A
b0000 V
b0000000000000000000001000101011001110001001100000010100110010101 h
b01001 `
b000000000001 l
0I
0B
b0000000000000000000000000000000000000000000000000000000000001000 +
1F
04
b0000000000000000000000000000000000000000000000000000000000010000 p
b0000000000000000000000000000000000000000000000000000000000010000 )
b01010 v
b0000000000000000000000000000000000000000000000000000111111111111 "*
b0000000000000000000000000000000000000000000000000000111111111111 c
b01010 ^
b01001 w
b0000000000000000000001000101011001110001001100000010100110010101 "+
b0000000000000000000001000101011001110001001100000010100110010101 d
b01001 _
bzzzzz u
bzzzzz ]
0x
0D
1y
1K
b111100010000 k
1"
1/
0.
b0000000000000000000000000000000000000000000000000000000000000010 C
b0000000000000000000000000000000000000000000000000000000000001010 '
b0000000000000000000000000000000000000000000000000000000000000001 f
b0000000000000000000001000101011001110001001100000010100110010101 e
b0000000000000000000001000101011001110001001100000010100110010110 ;
b11110001000001010011001010000011 q
b11110001000001010011001010000011 ,
